{
  "aa": {
    "en": "Amylcinnamyl alcohol"
  },
  "abd": {
    "en": "Tuna and its derivatives"
  },
  "abe": {
    "en": "Walleye and its derivatives"
  },
  "abf": {
    "en": "Barnacle and its derivatives"
  },
  "abg": {
    "en": "Crab and its derivatives"
  },
  "abh": {
    "en": "Crawfish and its derivatives"
  },
  "abi": {
    "en": "Krill and its derivatives"
  },
  "abj": {
    "en": "Lobster and its derivatives"
  },
  "abk": {
    "en": "Prawns and its derivatives"
  },
  "abl": {
    "en": "Shrimp and its derivatives"
  },
  "abn": {
    "en": "Abalone and its derivatives"
  },
  "ac": {
    "en": "Crustaceans and its derivatives",
    "sv": "Kräftdjur"
  },
  "acp": {
    "en": "Carp and its derivatives"
  },
  "ad": {
    "en": "3-Amino-2,4-dichlorophenol"
  },
  "adb": {
    "en": "Bass and its derivatives"
  },
  "adc": {
    "en": "Anchovy and its derivatives"
  },
  "ade": {
    "en": "Catfish and its derivatives"
  },
  "adf": {
    "en": "Cod and its derivatives"
  },
  "adg": {
    "en": "Flounder and its derivatives"
  },
  "adh": {
    "en": "Grouper and its derivatives"
  },
  "adi": {
    "en": "Haddock and its derivatives"
  },
  "adj": {
    "en": "Hake and its derivatives"
  },
  "adk": {
    "en": "Halibut and its derivatives"
  },
  "adl": {
    "en": "Herring and its derivatives"
  },
  "adm": {
    "en": "Mahi mahi and its derivatives"
  },
  "adp": {
    "en": "Pike and its derivatives"
  },
  "adq": {
    "en": "Pollock and its derivatives"
  },
  "adr": {
    "en": "Salmon and its derivatives"
  },
  "ads": {
    "en": "Snapper and its derivatives"
  },
  "adt": {
    "en": "Sole and its derivatives"
  },
  "adu": {
    "en": "Swordfish and its derivatives"
  },
  "adv": {
    "en": "Tilapia and its derivatives"
  },
  "adw": {
    "en": "Trout and its derivatives"
  },
  "ae": {
    "en": "Eggs and its derivatives",
    "sv": "Ägg"
  },
  "af": {
    "en": "Fish and its derivatives",
    "sv": "Fisk"
  },
  "ah": {
    "en": "Anise Alcohol"
  },
  "ai": {
    "en": "Alpha-Isomethyl Ionone"
  },
  "ajf": {
    "en": "Amberjack fish and its derivatives"
  },
  "al": {
    "en": "Amyl cinnamal"
  },
  "am": {
    "en": "Milk and its derivatives",
    "sv": "Mjölk"
  },
  "an": {
    "en": "Tree nuts (Nuts) and its derivatives",
    "sv": "Nötter (eng: tree nuts)"
  },
  "ano": {
    "en": "Perch and its derivatives"
  },
  "ap": {
    "en": "Peanuts and its derivatives",
    "sv": "Jordnötter"
  },
  "apl": {
    "en": "Apple and its derivatives"
  },
  "as": {
    "en": "Sesame Seeds and its derivatives",
    "sv": "Sesamfrön"
  },
  "asd": {
    "en": "Aspartame and aspartame-acesulfame salt and its derivatives"
  },
  "au": {
    "en": "Sulfur Dioxide and Sulfits",
    "sv": "Svaveldioxid eller sulfit"
  },
  "aw": {
    "en": "Cereals and its derivatives",
    "sv": "Spannmål som innehåller gluten"
  },
  "awf": {
    "en": "Whitefish and its derivatives"
  },
  "ax": {
    "en": "Other gluten containing grain and its derivatives"
  },
  "ay": {
    "en": "Soybean and its derivatives",
    "sv": "Sojabönor"
  },
  "ba": {
    "en": "Benzyl Alcohol"
  },
  "bas": {
    "en": "Basa and its derivatives"
  },
  "bb": {
    "en": "Benzyl Benzoate"
  },
  "bc": {
    "en": "Celery and its derivatives",
    "sv": "Selleri"
  },
  "be": {
    "en": "2 (4-tert-Butylbenzyl)"
  },
  "bf": {
    "en": "Beef and its derivatives"
  },
  "bfd": {
    "en": "Butterfish and its derivatives"
  },
  "bfh": {
    "en": "Bonito fish and its derivatives"
  },
  "bi": {
    "en": "Benzyl Cinnamate"
  },
  "blf": {
    "en": "Bluefish and its derivatives"
  },
  "bm": {
    "en": "Mustard and its derivatives",
    "sv": "Senap"
  },
  "bn": {
    "en": "Isoeugenol"
  },
  "bnd": {
    "en": "Banana and its derivatives"
  },
  "bo": {
    "en": "d-Limonene"
  },
  "bp": {
    "en": "Linalool"
  },
  "bq": {
    "en": "Methyl 2-Octynoate"
  },
  "br": {
    "en": "1,3-Bis-(2,4-diaminophenoxy) propane"
  },
  "brc": {
    "en": "Barracuda and its derivatives"
  },
  "brm": {
    "en": "Bream and its derivatives"
  },
  "bs": {
    "en": "Benzyl Salicylate"
  },
  "bwd": {
    "en": "Buckwheat and its derivatives"
  },
  "ca": {
    "en": "Cinnamyl Alcohol"
  },
  "cfd": {
    "en": "Cutlassfish and its derivatives"
  },
  "cfh": {
    "en": "Croaker fish and its derivatives"
  },
  "chb": {
    "en": "Chub and its derivatives"
  },
  "chr": {
    "en": "Char and its derivatives"
  },
  "ckf": {
    "en": "Cusk fish and its derivatives"
  },
  "cl": {
    "en": "Cinnamal"
  },
  "clm": {
    "en": "Clam and its derivatives"
  },
  "cm": {
    "en": "Chicken Meat and its derivatives"
  },
  "cn": {
    "en": "Citronellol"
  },
  "co": {
    "en": "Coumarin"
  },
  "cok": {
    "en": "Cockle and its derivatives"
  },
  "con": {
    "en": "Conch and its derivatives"
  },
  "cs": {
    "en": "Cotton Seeds and its derivatives"
  },
  "csc": {
    "en": "Cisco and its derivatives"
  },
  "ct": {
    "en": "Citral"
  },
  "da": {
    "en": "2,6-Dimethoxy-3,5-pyridinediamine HCl"
  },
  "dmf": {
    "en": "Drum fish and its derivatives"
  },
  "dp": {
    "en": "Diaminophenols"
  },
  "dyf": {
    "en": "Dory fish and its derivatives"
  },
  "eel": {
    "en": "Eel and its derivatives"
  },
  "eg": {
    "en": "Eugenol"
  },
  "eod": {
    "en": "Escolar and its derivatives"
  },
  "ep": {
    "en": "Oak Moss Extract and its derivatives"
  },
  "ev": {
    "en": "Treemoss Extract and its derivatives"
  },
  "fa": {
    "en": "Farnesol"
  },
  "fh": {
    "en": "4-Hydroxy-propylamino-3-nitrophenol"
  },
  "ft": {
    "en": "4-Amino-3-nitrophenol"
  },
  "gb": {
    "en": "Barley and its derivatives"
  },
  "ge": {
    "en": "Geraniol"
  },
  "gk": {
    "en": "Kamut and its derivatives"
  },
  "gl": {
    "en": "Glutamate and its derivatives"
  },
  "go": {
    "en": "Oats and its derivatives"
  },
  "gs": {
    "en": "Spelt and its derivatives"
  },
  "gtd": {
    "en": "Gelatine and its derivatives"
  },
  "hb": {
    "en": "HC Blue No 12"
  },
  "hc": {
    "en": "Hydroxyisohexyl 3-Cyclohexene Carboxaldehyde"
  },
  "hd": {
    "en": "HC Blue No 11"
  },
  "he": {
    "en": "Hydroxybenzomorpholine"
  },
  "hh": {
    "en": "Hydroxypropyl bis(N-hydroxyethyl-p-phenyldiamine) HCl"
  },
  "hn": {
    "en": "Hydroxyethyl-2-nitro-p-toluidine"
  },
  "hp": {
    "en": "2-Hydroxyethyl-picramic Acid"
  },
  "hx": {
    "en": "Hexyl Cinnamaldehyde"
  },
  "hy": {
    "en": "Hydroxycitronellal"
  },
  "jch": {
    "en": "Japanese horse chestnut and its derivatives"
  },
  "jfd": {
    "en": "Jack fish and its derivatives"
  },
  "kwd": {
    "en": "Kiwi and its derivatives"
  },
  "lgd": {
    "en": "Lingcod and its derivatives"
  },
  "lmt": {
    "en": "Limpets and its derivatives"
  },
  "lsn": {
    "en": "Land and sea snails (Escargot) and its derivatives"
  },
  "lx": {
    "en": "Latex"
  },
  "mac": {
    "en": "Mackerel and its derivatives"
  },
  "mal": {
    "en": "Marlin and its derivatives"
  },
  "mfd": {
    "en": "Milkfish and its derivatives"
  },
  "mh": {
    "en": "2-Methyl-5-hydroxyethylaminophenol"
  },
  "mkf": {
    "en": "Monkfish (Anglerfish, Lotte) and its derivatives"
  },
  "ml": {
    "en": "Lactose"
  },
  "mm": {
    "en": "Melatonin"
  },
  "mmd": {
    "en": "Matsutake mushroom and its derivatives"
  },
  "mod": {
    "en": "Mango and its derivatives"
  },
  "mss": {
    "en": "Mussels and its derivatives"
  },
  "nc": {
    "en": "Cocoa and its derivatives"
  },
  "ne": {
    "en": "Peas and its derivatives"
  },
  "nk": {
    "en": "Coriander and its derivatives"
  },
  "nl": {
    "en": "Lupine and its derivatives",
    "sv": "Lupin"
  },
  "nm": {
    "en": "Corn and Its derivatives"
  },
  "np": {
    "en": "Pod Fruits and its derivatives"
  },
  "nr": {
    "en": "Rye and its derivatives"
  },
  "nw": {
    "en": "Carrots and its derivatives"
  },
  "oct": {
    "en": "Octopus and its derivatives"
  },
  "ofd": {
    "en": "Oilfish and its derivatives"
  },
  "ogd": {
    "en": "Orange and its derivatives"
  },
  "on": {
    "en": "1-Naphthol"
  },
  "orr": {
    "en": "Orange roughy and its derivatives"
  },
  "oys": {
    "en": "Oysters and its derivatives"
  },
  "per": {
    "en": "Periwinkle and its derivatives"
  },
  "pfd": {
    "en": "Puffer fish and its derivatives"
  },
  "pgt": {
    "en": "Patagonian Toothfish and its derivatives"
  },
  "phd": {
    "en": "Peach and its derivatives"
  },
  "plc": {
    "en": "Plaice and its derivatives"
  },
  "pm": {
    "en": "p-Methylaminophenol"
  },
  "pn": {
    "en": "Pine nuts and its derivatives"
  },
  "po": {
    "en": "Pork and its derivatives"
  },
  "pom": {
    "en": "Pompano and its derivatives"
  },
  "pp": {
    "en": "p-Phenylenediamine"
  },
  "prg": {
    "en": "Porgy and its derivatives"
  },
  "ps": {
    "en": "Poppy Seeds and its derivatives"
  },
  "qua": {
    "en": "Quahaugs and its derivatives"
  },
  "rof": {
    "en": "Rockfish and its derivatives"
  },
  "sa": {
    "en": "Almond and its derivatives"
  },
  "sad": {
    "en": "Sapucaia nuts and its derivatives"
  },
  "sar": {
    "en": "Sardine and its derivatives"
  },
  "sb": {
    "en": "Seed Products and its derivatives"
  },
  "sc": {
    "en": "Cashews and its derivatives"
  },
  "sca": {
    "en": "Scallops and its derivatives"
  },
  "sd": {
    "en": "Beech Nuts and its derivatives"
  },
  "sdf": {
    "en": "Scad fish and its derivatives"
  },
  "se": {
    "en": "Butternuts and its derivatives"
  },
  "sf": {
    "en": "Chinquapins and its derivatives"
  },
  "sfd": {
    "en": "Swai fish and its derivatives"
  },
  "sft": {
    "en": "Spinefoot fish and its derivatives"
  },
  "sg": {
    "en": "Ginkgo Nuts and its derivatives"
  },
  "sh": {
    "en": "Hazelnut and its derivatives"
  },
  "shd": {
    "en": "Sheephead fish and its derivatives"
  },
  "shk": {
    "en": "Shark and its derivatives"
  },
  "si": {
    "en": "Hickory Nuts and its derivatives"
  },
  "sj": {
    "en": "Shea Nuts and its derivatives"
  },
  "sk": {
    "en": "Pili Nuts and its derivatives"
  },
  "sl": {
    "en": "Lichee Nuts and its derivatives"
  },
  "sm": {
    "en": "Macadamia Nut and its derivatives"
  },
  "smf": {
    "en": "Schoolmaster fish and its derivatives"
  },
  "smt": {
    "en": "Smelt and its derivatives"
  },
  "sn": {
    "en": "Chestnuts and its derivatives"
  },
  "so": {
    "en": "Coconuts and its derivatives"
  },
  "sp": {
    "en": "Pecan Nut and its derivatives"
  },
  "spf": {
    "en": "Scorpionfish and its derivatives"
  },
  "sq": {
    "en": "Queensland Nut and its derivatives"
  },
  "squ": {
    "en": "Squid (Calamari) and its derivatives"
  },
  "sr": {
    "en": "Brazil Nut and its derivatives"
  },
  "ss": {
    "en": "Sunflower Seeds and its derivatives"
  },
  "st": {
    "en": "Pistachio and its derivatives"
  },
  "stg": {
    "en": "Sturgeon and its derivatives"
  },
  "su": {
    "en": "Salicylate and its derivatives"
  },
  "sw": {
    "en": "Walnut and its derivatives"
  },
  "sx": {
    "en": "Pulses"
  },
  "ta": {
    "en": "3-Aminophenol"
  },
  "td": {
    "en": "2,5-Diaminotoluene"
  },
  "tfd": {
    "en": "Tilefish and its derivatives"
  },
  "tr": {
    "en": "Triticale and its derivatives"
  },
  "ttd": {
    "en": "Tomato and its derivatives"
  },
  "tur": {
    "en": "Turbot and its derivatives"
  },
  "um": {
    "en": "Molluscs and its derivatives",
    "sv": "Blötdjur"
  },
  "un": {
    "en": "Shellfish and its derivatives"
  },
  "uw": {
    "en": "Wheat and its derivatives"
  },
  "wfd": {
    "en": "Wolffish and its derivatives"
  },
  "whk": {
    "en": "Whelks and its derivatives"
  },
  "wht": {
    "en": "Whiting and its derivatives"
  },
  "x99": {
    "en": "Does not contain declaration obligatory allergens"
  },
  "ymd": {
    "en": "Yam and its derivatives"
  }
}
